1	1	306.29	付保留地	国際観光株式会社	1,002 	306,903 	3,985.72 	3,384.32 	○	移転あり	従前地まで	306.29 	87.00 	80.00%		109.00 	26,700,000 	87,000 	牟呂町字松崎28,29,30,31-1,32-1,46
1	6	28.79 	付保留地	伊藤 和子	904 	26,026 	178.51 	171.12 	×	移転なし	従前地以上	7.39 	54.00 	50.00%	21.40 	109.00 	2,469,000 	85,000 	柱四番町40-2
1	8	145.45 																	
#1	8	41.13 	付保留地	細河 康伸	934 	38,415 	145.45 	104.32 	○	移転あり	従前地まで	41.13 	76.00 	70.00%			2,919,000 	70,000 	柱四番町45-1
#2	1-3	176.73 			970 	171,428 									176.73 	109.00 	18,685,000 	105,000 	
#2	1-4	41.34 		道路附帯地															
2	3	302.17 		＊評価修正要？	962 	290,688 									302.17 	109.00 	31,684,000 	104,000 	
#2	4	8.39 	付保留地	田辺 秀甫	904 	7,585 	134.13 	125.74 	○	移転あり	従前地まで	8.39 	76.00 	70.00%			576,000 	68,000 	柱四番町45-3
3	2-1	199.47 			848 	169,151 									199.47 	109.00 	18,437,000 	92,000 	
3	8	171.10 	付保留地	森田 千代子	861 	147,317 	971.90 	931.90 	×	移転あり	従前地以上	40.00 	87.00 	80.00%	131.10 	109.00 	15,299,000 	89,000 	柱五番町114
7	2	1,332.79 	付保留地	豊橋市	976 	1,300,803 	6,852.81 	5,558.48 							1,332.79 	109.00 	124,282,667 	93,250 	H23.8.31 随意契約
8	7	59.85 	付保留地	星雅敏外1名	897 	53,685 											4,613,000 	77,000 	牟呂町字東里7-4と7-8,7-9,7-10の各一部
8	8	16.96 	付保留地	星雅敏外1名	897 	15,213 											1,658,000 	97,000 	牟呂町字東里7-4と7-8,7-9,7-10の各一部
8	12	138.91 																	
#8	16	25.36 	付保留地	杉浦 義弘	897 	22,748 	163.78 	113.55 	○	移転あり	従前地まで	25.36 	76.00 	70.00%			1,728,000 	68,000 	牟呂町字東里7-5と7-8,7-9,7-10の各一部
8	21	17.04 	付保留地	小栗 フミ子 外1名	897 	15,285 	141.79 	99.88 	○	移転あり	従前地まで	17.04 	76.00 	70.00%			1,161,000 	68,000 	牟呂町字東里7-6と7-8,7-9,7-10の各一部
8	24	7.87 	付保留地	岡田 秀樹 外1名	897 	7,059 	132.50 	124.13 	○	移転なし	従前地まで	7.87 	54.00 	50.00%			381,000 	48,000 	柱五番町107-2
8	26	48.65 	付保留地	鷺森 義隆	897 	43,639 	124.49 	100.11 	×	移転なし	従前地以上	24.38 	54.00 	50.00%	24.27 	109.00 	3,553,000 	73,000 	柱五番町107-1
#8	31	163.63 			995 	162,812 									163.63 	109.00 	17,746,000 	108,000 	
8	35	61.37 	付保留地	杉浦義弘													4,640,000 		
9	1-2	35.47 	付保留地	鳥越 啓一													2,975,000 		
9	1-3	496.76 																	
9	2	174.93 		豊橋市													7,850,000 		
#9	1	588.49 	付保留地	豊橋市	855 	503,159 	1,759.56 	1,294.27 							588.49 	109.00 	54,844,000 	93,000 	牟呂町字東里42-1外
10	2	426.62 			876 	373,719 									426.62 	109.00 	40,735,000 	95,000 	
10	7	141.45 			910 	128,720 									141.45 	109.00 	14,030,000 	99,000 	
10	8	22.13 	付保留地	山本 のぶ	847 	18,744 	148.00 	125.87 	○	更地	従前地まで	22.13 	98.00 	90.00%			1,836,000 	82,000 	藤沢町2
#11	3-1	105.79 			864 	91,403 									105.79 	109.00 	9,962,000 	94,000 	
11	3-3	36.63 	付保留地	萩原 浩二	886 	32,454 	77.68 	69.16 	×	移転あり	従前地以上	8.52 	76.00 	70.00%	28.11 	109.00 	3,288,000 	89,770 	H25.11.19 随意契約
12	2	39.19 	付保留地	水谷 清司	850 	33,312 	781.00 	621.97 	○	移転あり	従前地まで	39.19 	87.00 	80.00%			2,898,000 	73,000 	牟呂町字東里62-1,62-2,62-3,62-4
12	3-1	8.94 	付保留地	金田洋治													828,000 		
#12	3-1	365.43 			850 	310,616 									365.43 	109.00 	33,857,000 	92,000 	
12	6	347.55 		小笠原 隆夫？	841 	292,290 									347.55 	109.00 	31,859,000 	91,000 	
12	7	356.56 	付保留地	小笠原 隆夫	819 	292,023 	1,983.47 	1,623.39 	○	移転あり	従前地まで	356.56 	87.00 	80.00%			25,405,000 	71,000 	牟呂町字東里45-2,46
13	2	217.08 			984 	213,607 									217.08 	109.00 	23,283,000 	107,000 	
13	6	55.04 	付保留地	福井 謙太郎	984 	54,159 	277.00 	222.65 	×	移転あり	従前地以上	54.35 	87.00 	80.00%	0.69 	109.00 	4,726,000 	85,000 	牟呂町字東里50-2
13	7	290.96 			984 	286,305 									290.96 	109.00 	31,207,000 	107,000 	
13	10	231.41 		大岩 啓子 ?	876 	202,715 									231.41 	109.00 	22,095,000 	95,000 	
13	11-1	345.91 																	
14	3	531.69 		金本夕子角谷 よ志ゑ換地変更予定	1,008 	535,944 									531.69 	109.00 	58,417,000 	109,000 	
15	1-2	46.14 		四戸 修司													3,148,000 		
#15	1	132.24 			895 	118,355 									132.24 	109.00 	12,900,000 	97,000 	
#15	3-2	222.65 			845 	188,139 									222.65 	109.00 	20,507,000 	92,000 	
15	7-2	151.20 			837 	126,554 									151.20 	109.00 	13,794,000 	91,000 	
15	8	165.13 			913 	150,764 									165.13 	109.00 	16,433,000 	99,000 	
15	9	9.35 	付保留地	近藤 百夫	889 	8,312 	193.00 	155.94 	○	移転あり	従前地まで	9.35 	76.00 	70.00%			631,000 	67,000 	牟呂町字百間3-4
15	12-2	85.90 	付保留地	松井 乙也	916 	78,684 	396.00 	316.21 	×	移転あり	従前地以上	79.79 	87.00 	80.00%	6.11 	109.00 	6,968,000 	81,120 	H26.5.7 随意契約
15	17	44.59 	付保留地	近藤 千代子	875 	39,016 	193.00 	153.76 	×	更地	従前地以上	39.24 	98.00 	90.00%	5.35 	109.00 	3,875,000 	86,000 	牟呂町字百間3-2
15	19	74.98 	付保留地	高津 順次	904 	67,782 	119.89 	90.31 	×	移転あり	従前地以上	29.58 	76.00 	70.00%	45.40 	109.00 	6,505,000 	86,760 	H24.8.2 随意契約
15	21-2	43.87 	付保留地	神藤 秀山													2,051,000 		
#15	21	231.41 			866 	200,401 									231.41 	109.00 	21,843,000 	94,000 	牟呂町字百間40-19外７筆
16	2-1	240.12 															22,211,000 		R01
#16	2	1,000.00 			859 	859,000 									1,000.00 	109.00 	93,631,000 	93,000 	
16	5-2	40.17 	付保留地	木島 茂樹	849 	34,104 	182.50 	125.12 	○	移転あり	従前地まで	40.17 	76.00 	70.00%			2,591,000 	64,500 	H23.7.1 随意契約
16	5-4	44.12 	付保留地	下田　さち子	849 	37,458 	129.01 	104.39 	×	移転あり	従前地以上	24.62 	76.00 	70.00%	19.50 	109.00 	3,393,000 	76,000 	牟呂町字大塚28-6,28-8
16	7	37.66 	付保留地	青木 修一	933 	35,137 	181.56 	143.90 	○	移転あり	従前地まで	37.66 	76.00 	70.00%			2,670,000 	70,900 	H25.8.9 随意契約
16	9	42.58 	付保留地	袴田 直哉	893 	38,024 	247.96 	205.38 	○	移転なし	従前地まで	42.58 	65.00 	60.00%			2,496,000 	58,000 	牟呂町字百間4-2
16	11	45.24 	付保留地	福田 佳浩 外1名	891 	40,309 	267.79 	222.55 	○	移転なし	従前地まで	45.24 	65.00 	60.00%			2,637,000 	58,000 	牟呂町字百間4-4
16	12	77.12 	付保留地	金田 幸雄	936 	72,184 	119.89 	88.17 	×	移転あり	従前地以上	31.72 	76.00 	70.00%	45.40 	109.00 	6,888,000 	89,320 	H27.2.12 随意契約
16	14	51.70 	付保留地	鈴木 智野	869 	44,927 	121.68 	80.40 	×	移転あり	従前地以上	41.28 	76.00 	70.00%	10.42 	109.00 	3,713,000 	71,000 	牟呂町字東里7-1と7-8,7-9,7-10の各一部
#16	19	691.86 			856 	592,232 									691.86 	109.00 	64,553,000 	93,000 	
17	2	165.29 		遠山和男・三上裕	843 	139,339 									165.29 	109.00 	15,702,000 	95,000 	H22.8.11 随意契約
17	3	185.80 		遠山和男・三上裕	843 	156,629 									185.80 	109.00 	17,651,000 	95,000 	H22.8.11 随意契約
17	7	12.59 	付保留地	柴田 照雄	979 	12,326 	965.28 	822.61 	○	移転あり	従前地まで	12.59 	87.00 	80.00%			1,072,000 	85,000 	牟呂町字百間5-1,5-2
17	12	52.31 	付保留地	遠山 和男	922 	48,230 	327.05 	298.77 	×	移転あり	従前地以上	28.28 	87.00 	80.00%	24.03 	109.00 	4,683,000 	89,530 	H23.7.14 随意契約
#17	15	59.65 		公共用地															
20	2	590.90 	付保留地	東三液化瓦斯協同株式会社	849 	501,674 	5,646.52 	3,693.32 	○	移転あり	従前地まで	590.90 	87.00 	80.00%			43,718,000 	73,000 	牟呂町字古田4-1外９筆
20	8	131.76 	付保留地	小野 広司	822 	108,307 	1,271.00 	1,202.72 	×	移転なし	従前地以上	68.28 	65.00 	60.00%	63.48 	109.00 	9,335,000 	70,000 	潮崎町2,3,10,11
21	3	385.67 	付保留地	清水 清正	886 	341,704 	809.25 	606.07 	×	移転あり	従前地以上	203.18 	87.00 	80.00%	182.49 	109.00 	33,285,000 	86,310 	H24.7.18 随意契約
#21	6-1	313.37 			886 	277,646 									313.37 	109.00 	30,263,000 	96,000 	
21	12	40.54 	付保留地	味岡 英司	936 	37,945 	495.00 	454.46 	○	移転あり	従前地まで	40.54 	87.00 	80.00%			3,301,000 	81,430 	H24.6.28 随意契約
21	16	98.30 	付保留地	前田 耕作	883 	86,799 	360.25 	298.40 	×	移転あり	従前地以上	61.85 	87.00 	80.00%	36.45 	109.00 	8,259,000 	84,020 	H26.5.16 随意契約
21	18-2	252.58 			1,035 	261,420 									252.58 	109.00 	28,494,000 	112,000 	
22	1	746.01 			881 	657,235 									746.01 	109.00 	71,638,000 	96,000 	
22	3	761.48 			838 	638,120 									761.48 	109.00 	69,555,000 	91,000 	
22	5	169.32 	付保留地	前寺 喜代子	851 	144,091 	594.75 	425.43 	○	移転あり	従前地まで	169.32 	87.00 	80.00%			12,535,000 	74,040 	牟呂町字百間28-1,28-2
22	8	57.84 	付保留地	味岡 秋夫	912 	52,750 	216.00 	158.16 	○	更地	従前地まで	57.84 	109.00 	100.00%			5,749,000 	99,390 	牟呂町字百間27-4
22	12	47.81 	付保留地	加藤 則子	912 	43,603 	215.00 	167.19 	○	更地	従前地まで	47.81 	109.00 	100.00%			4,752,000 	99,000 	牟呂町字百間27-1
22	14	60.86 	付保留地	福田 浩二	912 	55,504 	165.28 	130.54 	×	移転あり	従前地以上	34.74 	76.00 	70.00%	26.12 	109.00 	5,004,000 	82,230 	H20.2.1 随意契約
22	15	74.37 	付保留地	金子 昌宏 外１名	912 	67,825 	198.34 	151.83 	×	移転なし	従前地以上	46.51 	54.00 	50.00%	27.86 	109.00 	5,060,000 	68,000 	牟呂町字百間48-2
22	18	68.22 	付保留地	白井 晧視	912 	62,217 	171.90 	127.78 	×	更地	従前地以上	44.12 	98.00 	90.00%	24.10 	109.00 	6,339,000 	92,000 	牟呂町字百間48-3
22	19	254.99 																	
#22	20	105.61 	付保留地	四戸 修司	912 	96,316 	198.00 	149.38 	×	移転あり	従前地以上	48.62 	76.00 	70.00%	56.99 	109.00 	9,035,000 	85,000 	牟呂町字百間64-3
23	1-1	192.46 															22,325,000 		R02
23	1-2	513.10 																	
23	2	337.17 																	
#23	1	304.15 	付保留地	堀田 雄一郎	1,072 	326,049 	345.43 	203.06 	×	更地	従前地以上	142.37 	109.00 	100.00%	161.78 	109.00 	35,539,000 	116,000 	牟呂町字百間63の一部持分
#23	2	167.58 	付保留地	松田 一夫	876 	146,800 	203.19 	156.80 	×	移転あり	従前地以上	46.39 	87.00 	80.00%	121.19 	109.00 	15,107,000 	90,000 	牟呂町字百間64-6,66-3
23	4	75.72 	付保留地	松田 一夫													6,369,000 		H29
#23	5	252.79 	付保留地	松田 一夫	861 	217,652 	203.19 	156.80 	×	移転あり	従前地以上				252.79 	109.00 	23,724,000 	93,000 	牟呂町字百間64-6,66-3
23	6	354.71 																	
23	8-1	335.52 																	
#23	11	147.59 	付保留地	堀田 多賀子	1,040 	153,494 	86.36 	50.76 	×	更地	従前地以上	35.60 	98.00 	90.00%	111.99 	109.00 	16,323,000 	110,000 	牟呂町字百間63の一部持分
24	7	293.75 			858 	252,038 									293.75 	109.00 	27,472,000 	93,000 	
24	11	270.75 																	
24	13	107.18 	付保留地	鈴木 大造	877 	93,997 	912.00 	214.36 	○	移転あり	従前地まで	107.18 	87.00 	80.00%			8,177,000 	76,300 	H22.7.16 随意契約
24	14	107.19 	付保留地	鈴木 正彦	877 	94,006 	912.00 	214.36 	○	移転あり	従前地まで	107.19 	87.00 	80.00%			8,178,000 	76,300 	H22.7.28 随意契約
25	3-2	154.07 															14,636,000 		R01
25	3-3	154.06 																	
25	3-4	154.06 															14,635,000 		H30
#25	3	818.49 			857 	701,446 									818.49 	109.00 	76,457,000 	93,000 	
25	6	14.83 	付保留地	鈴木 良始	857 	12,709 	262.33 	204.43 	○	移転あり	従前地まで	14.83 	87.00 	80.00%			1,105,000 	74,520 	牟呂町字百間64-8,64-11,66-1
25	7	267.77 			857 	229,479 									267.77 	109.00 	25,013,000 	93,000 	
25	18	73.67 	付保留地	二村 吉昭	884 	65,124 	136.74 	108.15 	×	移転あり	従前地以上	28.59 	76.00 	70.00%	45.08 	109.00 	6,264,000 	85,030 	H26.10.29 随意契約
25	19	6.57 	付保留地	林 芳広 外1名	884 	5,808 	254.62 	191.78 	○	移転あり	従前地まで	6.57 	87.00 	80.00%			441,000 	67,000 	牟呂町字百間40-17,40-18,40-35
#25	21	51.31 	付保留地	榊原 孟夫 外1名	884 	45,358 	231.41 	180.10 	○	移転あり	従前地まで	51.31 	87.00 	80.00%			3,946,000 	76,000 	牟呂町字百間64-2,64-9
25	22-1	18.88 	付保留地	山本 聡	884 	16,690 	258.27 	179.12 	○	移転あり	従前地まで	18.88 	87.00 	80.00%			1,662,000 	88,000 	牟呂町字百間64-1,64-12
25	22-2	167.11 	付保留地	山本 聡	884 	147,725 									167.11 	109.00 	14,720,000 	88,000 	H28
25	24	105.90 	付保留地	榊原孟夫外1名													9,206,000 	86,000 	H28
#25	27	54.59 	付保留地	白井 好弘	884 	48,258 	230.83 	176.82 	×	移転あり	従前地以上	54.01 	87.00 	80.00%	0.58 	109.00 	4,209,000 	77,000 	牟呂町字百間64-4,64-10
26	4	73.13 	付保留地	学校法人寿泉寺学園	978 	71,521 	6,317.00 	4,333.85 	○	移転なし	従前地まで	73.13 	65.00 	60.00%			6,285,000 	85,000 	牟呂町字百間16外８筆
27	1	359.15 	付保留地	安形 吉央	1,036 	372,079 	836.36 	632.59 	×	移転あり	従前地以上	203.77 	87.00 	80.00%	155.38 	109.00 	35,912,000 	100,000 	牟呂町字百間58
27	11-1	73.72 	付保留地	大山 晃賢	883 	65,095 	429.77 	357.95 	×	移転あり	従前地以上	71.82 	87.00 	80.00%	1.90 	109.00 	5,700,000 	77,320 	H24.7.30 随意契約
27	11-2	81.75 	付保留地	大山 晃賢													7,868,000 	96,000 	H28
27	11-3	214.86 																	
27	17	21.58 	付保留地	榊原 秀子	883 	19,055 	165.29 	143.71 	○	更地	従前地まで	21.58 	98.00 	90.00%			1,867,000 	86,000 	牟呂町字大塚1-7
27	18	425.23 																	
28	7	202.56 			876 	177,443 									202.56 	109.00 	19,341,000 	95,000 	
29	2	1,270.80 			928 	1,179,302 									1,270.80 	109.00 	128,543,000 	101,000 	
29	5	391.07 	付保留地	株式会社真菱	969 	378,947 	1,666.10 	1,283.24 	×	移転なし	従前地以上	382.86 	109.00 	100.00%	8.21 	109.00 	24,981,000 	63,880 	H24.9.7 随意契約
#29	8-2	267.91 		道路附帯地															
30	5	115.71 																	
30	7	201.64 																	
#30	6	16.23 	付保留地	鳥越 啓一	902 	14,639 	115.71 	99.48 	○	移転あり	従前地まで	16.23 	76.00 	70.00%			1,112,000 	68,000 	牟呂町字大塚1-8
#30	8	26.86 	付保留地	鈴木 貞夫	902 	24,228 	201.64 	174.78 	○	移転あり	従前地まで	26.86 	87.00 	80.00%			2,107,000 	78,000 	牟呂町字大塚13-3,14-1,15-3
30	10	52.83 	付保留地	大田 浩樹	902 	47,653 	131.78 	112.46 	×	更地	従前地以上	19.32 	98.00 	90.00%	33.51 	109.00 	5,002,000 	94,000 	牟呂町字大塚1-4
30	11	111.36 	付保留地	牧野 哲也	932 	103,788 	145.00 	104.44 	×	移転あり	従前地以上	40.56 	87.00 	80.00%	70.80 	109.00 	10,481,000 	94,120 	H21.7.2 随意契約
31	4	207.75 			901 	187,183 			×	移転あり	従前地まで		87.00 	80.00%	207.75 	109.00 	20,402,000 	98,000 	
31	6-5	87.88 	付保留地	渡辺 文子	901 	79,180 	149.66 	110.47 	×	移転あり	従前地以上	39.19 	76.00 	70.00%	48.69 	109.00 	7,465,000 	84,950 	H26.9.4 随意契約
31	6-6	140.36 			892 	125,201 									140.36 	109.00 	13,646,000 	97,000 	
32	1	1,237.30 			889 	1,099,960 									1,237.30 	109.00 	119,895,000 	96,000 	
#32	2	354.69 			847 	300,422 									354.69 	109.00 	32,745,000 	92,000 	
32	9	771.32 			824 	635,568 									771.32 	109.00 	69,276,000 	89,000 	
32	11	35.41 	付保留地	太陽住宅株式会社	860 	30,453 	121.00 	85.59 	○	更地	従前地まで	35.41 	98.00 	90.00%			2,984,000 	84,000 	牟呂町字大塚31-7
32	15	60.47 	付保留地	白井 千代子	929 	56,177 	165.00 	104.82 	×	更地	従前地以上	60.18 	98.00 	90.00%	0.29 	109.00 	5,508,000 	91,000 	牟呂町字大塚30-5,31-5
32	17	42.47 	付保留地	鈴木 宏幸	929 	39,455 	165.35 	122.82 	○	移転あり	従前地まで	42.47 	76.00 	70.00%			2,998,000 	70,600 	H21.8.6 随意契約
32	26	110.65 	付保留地	藤井 昌代	929 	102,794 	69.50 	54.64 	×	移転あり	従前地以上	14.86 	76.00 	70.00%	95.79 	109.00 	10,748,000 	97,000 	牟呂町字大塚28-5
#32	27	281.80 			873 	246,011 									281.80 	109.00 	26,815,000 	95,000 	
#33	1	161.60 			887 	143,339 									161.60 	109.00 	15,623,000 	96,000 	
33	1-3	30.99 	付保留地	鈴木秀治															
33	2	65.22 	付保留地	鈴木 明	887 	57,850 	550.16 	484.94 	○	移転あり	従前地まで	65.22 	87.00 	80.00%			5,032,000 	77,160 	H24.8.29 随意契約
#33	5	20.63 			639 	13,183 									20.63 	109.00 	1,436,000 	69,000 	
33	6	182.18 																	
33	8	69.05 	付保留地	柴田 雅夫	887 	61,247 	145.45 	131.52 	×	移転なし	従前地以上	13.93 	65.00 	60.00%	55.12 	109.00 	6,132,000 	88,810 	H21.12.15 随意契約
33	10	30.16 	付保留地	森田 雅巳	887 	26,752 	299.10 	265.00 	○	移転なし	従前地まで	30.16 	65.00 	60.00%			1,738,000 	57,000 	牟呂町字大塚10-1
33	11	45.84 	付保留地	森田 浩史	887 	40,660 	503.60 	437.59 	○	移転あり	従前地まで	45.84 	87.00 	80.00%			3,537,000 	77,160 	H25.10.25 随意契約
33	12-1	10.62 	付保留地	森田 浩史															
33	14	34.10 	付保留地	森田 とみ子	887 	30,247 	304.00 	264.16 	○	移転あり	従前地まで	34.10 	87.00 	80.00%			2,631,000 	77,160 	H25.10.25 随意契約
33	19	24.79 	付保留地	大竹 澄子	873 	21,642 	248.67 	218.69 	○	移転あり	従前地まで	24.79 	87.00 	80.00%			1,882,000 	75,000 	牟呂町字大塚6-1,6-2,6-7
33	20	24.24 			873 	21,162 									24.24 	109.00 	2,306,000 	95,000 	
33	23	41.33 	付保留地	杉浦 立悦	873 	36,081 	332.02 	291.59 	×	移転あり	従前地まで	41.33 	87.00 	80.00%			3,139,000 	75,000 	牟呂町字大塚4-1
33	25-2	33.35 	付保留地	駒 千代子	873 	29,115 	265.48 	233.15 	×	移転なし	従前地以上	32.33 	65.00 	60.00%	1.04	109.00 	1,933,000 	57,960 	牟呂町字大塚3-5,3-6
33	26	31.49 	付保留地	大塚 敏子	873 	27,491 	264.41 	232.21 	○	移転なし	従前地まで	31.49 	65.00 	60.00%			1,786,000 	56,000 	牟呂町字大塚3-5,3-6
33	28	23.99 	付保留地	大晋建設株式会社	873 	20,943 	177.00 	150.86 	○	更地	従前地まで	23.99 	98.00 	90.00%			2,052,000 	85,000 	牟呂町字大塚3-1
33	30	32.62 	付保留地	中部電力株式会社	611 	19,931 	229.00 	195.48 	○	移転なし	従前地まで	32.62 	65.00 	60.00%			1,295,000 	39,000 	牟呂町字大塚3-3
33	33	12.13 	付保留地	中島 敏夫	873 	10,589 	110.00 	97.42 	○	移転なし	従前地まで	12.13 	54.00 	50.00%			571,000 	47,000 	牟呂町字大塚2-1,2-3
33	35	11.19 	付保留地	伊藤 喜朗	873 	9,769 	110.02 	96.63 	○	更地	従前地まで	11.19 	98.00 	90.00%			957,000 	85,000 	牟呂町字大塚2-4
33	36-2	16.91 	付保留地	石川広宣															
33	38	17.15 	付保留地	川合 正春	873 	14,972 	148.77 	130.83 	○	移転あり	従前地以上	17.94 	76.00 	70.00%	(0.79)	109.00 	1,115,000 	65,000 	牟呂町字大塚1-9,2-6
#33	39	54.64 			864 	47,209 									54.64 	109.00 	5,145,000 	94,000 	
33	42	612.00 																	
#33	43	78.19 	付保留地	藤田 久夫	1,049 	82,021 	165.28 	136.69 	×	移転あり	従前地以上	28.59 	76.00 	70.00%	49.60 	109.00 	7,950,000 	101,000 	牟呂町字大塚17-3
#33	44	200.00 			1,050 	210,000 									200.00 	109.00 	22,890,000 	114,000 	
#33	46	197.12 			1,050 	206,976 									197.12 	109.00 	22,560,000 	114,000 	
34	14-1	23.40 	付保留地	藤江 康仁	877 	20,522 	241.80 	174.95 	○	移転あり	従前地まで	23.40 	76.00 	70.00%			1,559,000 	66,630 	H23.9.13 随意契約
34	14-2	168.00 			877 	147,336 									168.00 	109.00 	16,059,000 	95,000 	
34	16	51.58 	付保留地	石倉 久美子	965 	49,775 	182.41 	130.24 	○	移転あり	従前地まで	51.58 	76.00 	70.00%			3,782,000 	73,330 	牟呂町字大塚73-6,73-7
34	17-2	19.71 	付保留地	黒澤 聖伸	936 	18,449 	224.00 	145.58 	○	更地	従前地まで	19.71 	98.00 	90.00%			1,808,000 	91,740 	H24.8.30 随意契約
34	24	182.45 	付保留地	小林昇													11,183,000 	61,000 	H28
35	1-2	33.06 	付保留地	市川 光雄	891 	29,456 	181.81 	148.21 	○	移転あり	従前地まで	33.06 	76	70.00%			2,238,000 	67,700 	H25.7.5 随意契約
35	1-3	36.10 	付保留地	宇野 伸一	934 	33,717 	181.80 	167.79 	×	移転あり	従前地以上	14.01 	87.00 	80.00%	22.09 	109.00 	3,387,000 	93,830 	H25.10.2 随意契約
35	4	238.03 			908 	216,131 									238.03 	109.00 	23,558,000 	98,000 	
35	7	654.48 			905 	592,304 									654.48 	109.00 	64,561,000 	98,000 	
35	10-2	18.41 	付保留地	株式会社立岩産商	902 	16,606 	159.46 	119.84 	○	更地	従前地まで	18.41 	98.00 	90.00%			1,627,000 	88,380 	H26.5.12 随意契約
35	13	82.58 	付保留地	金成 文吾	902 	74,487 	99.64 	82.71 	×	移転あり	従前地以上	16.93 	76.00 	70.00%	65.65 	109.00 	7,615,000 	92,220 	H25.5.29 随意契約
35	17	40.31 	付保留地	西山 達伸	902 	36,360 	296.05 	224.16 	○	移転あり	従前地まで	40.31 	87.00 	80.00%			3,163,000 	78,470 	H25.7.2 随意契約
35	21	22.21 	付保留地	山口博司	930 	20,655 	183.00 	143.08 	○	移転あり	従前地まで	22.21 	76.00 	70.00%			1,569,000 	70,650 	H23.8.25 随意契約
35	23	15.48 	付保留地	宍戸 靖夫	891 	13,793 	83.77 	68.29 	○	移転あり	従前地まで	15.48 	76.00 	70.00%			1,048,000 	67,710 	H24.8.8 随意契約
36	2	502.02 			876 	439,770 									502.02 	109.00 	47,934,000 	95,000 	
36	7	993.45 			902 	896,092 									993.45 	109.00 	97,674,000 	98,000 	
36	8-1	157.33 																	
36	8-3	157.31 																	
#36	9	856.43 			902 	772,500 									856.43 	109.00 	84,202,000 	98,000 	
36	12	40.37 	付保留地	関 康人 外1名	920 	37,140 	156.69 	116.32 	○	移転あり	従前地まで	40.37 	76.00 	70.00%			2,822,000 	69,910 	牟呂町字大塚73-1
36	13-2	46.72 	付保留地	青山柊威外1名													3,475,000 	74,000 	H30
37	5	129.86 	付保留地	中部電力株式会社													5,324,000 	40,000 	R01
37	11-2	30.53 	付保留地	愛知採石工業株式会社	1,037 	31,660 	3,051.56 	2,780.32 	○	更地	従前地まで	30.53 	109.00 	100.00%			3,450,000 	113,000 	
#37	12	365.96 			1,040 	380,598 									365.96 	109.00 	41,485,000 	113,000 	
37	12-1	182.98 	付保留地	林光土建株式会社													16,556,000 	90,000 	H30
37	12-2	182.98 	付保留地	林光土建株式会社													16,556,000 	90,000 	H30
38	1	302.00 	付保留地	平出薫															
38	2-1	170.59 																	
38	3-1	147.55 	付保留地	平出薫															
38	4-3	160.95 	付保留地	谷野英子外3名													10,106,000 		H29
#38	2	245.40 	付保留地	田中 伸幸	933 	228,958 	1,009.68 	675.47 	○	更地	従前地まで	245.40 	109.00 	100.00%			24,956,000 	101,000 	牟呂町字大塚84-1,84-2,84-3,85-3,85-4
#38	10	153.00 			1,040 	159,120 									153.00 	109.00 	17,344,000 	113,000 	
39	3	78.88 	付保留地	福井 基	983 	77,539 	35.00 	34.15 	×	移転あり	従前地以上	0.85 	76.00 	70.00%	78.03 	109.00 	8,424,000 	106,000 	牟呂町字松島東9-6
39	4	133.01 			995 	132,345 									133.01 	109.00 	14,425,000 	108,000 	
39	7	41.33 	付保留地	加藤 義治	776 	32,072 	711.07 	664.65 	○	移転なし	従前地まで	41.33 	65.00 	60.00%			3,052,000 	73,000 	H29.6.1 随意契約
39	8	191.79 			788 	151,131 									191.79 	109.00 	16,473,000 	85,000 	
39	12	169.49 			875 	148,304 									169.49 	109.00 	16,165,000 	95,000 	
39	13	47.98 	付保留地	長瀬 新太郎	875 	41,983 	330.57 	286.61 	×	移転なし	従前地まで	47.98 	65.00 	60.00%			2,728,000 	56,000 	牟呂町字松島東5-4
39	21	21.47 	付保留地	白井 久美子	901 	19,344 	115.70 	97.42 	×	移転なし	従前地まで	21.47 	54.00 	50.00%			1,044,000 	48,000 	牟呂町字松島東2-3
39	22	21.13 	付保留地	岡田 敏	901 	19,038 	115.70 	97.41 	×	移転なし	従前地まで	21.13 	54.00 	50.00%			1,028,000 	48,000 	牟呂町字松島東2-1
39	24	50.64 	付保留地	杉浦卓哉	901 	45,627 	218.18 	183.70 	×	移転なし	従前地まで	50.64 	65.00 	60.00%			2,965,000 	58,000 	牟呂町字松島東1-1
39	26-1	43.64 	付保留地	岡田 秀夫	901 	39,320 	163.87 	121.65 	×	移転あり	従前地以上	42.22 	76.00 	70.00%	1.42 	109.00 	3,030,000 	69,440 	H24.7.24 随意契約
39	26-3	54.62 	付保留地	田口 育子	901 	49,213 	217.66 	163.04 	○	移転あり	従前地まで	54.62 	87.00 	80.00%			4,281,000 	78,380 	H24.8.16 随意契約
#39	26-6	6.29 			901 	5,667 									6.29 	109.00 	617,000 	98,000 	
39	26-7	34.97 	付保留地	佐藤 春吉	901 	31,508 	130.05 	105.86 	×	移転あり	従前地以上	24.19 	76.00 	70.00%	10.78 	109.00 	2,715,000 	77,640 	H26.11.19 随意契約
39	27	43.64 	付保留地	加藤 忠司	901 	39,320 	163.87 	121.65 	×	移転あり	従前地以上	42.22 	76.00 	70.00%	1.42 	109.00 	3,030,000 	69,440 	H26.5.27 随意契約
#39	31-1	49.12 		佐々木豊久・豊久外2名を換地変更予定	905 	44,454 									49.12 	109.00 	4,845,000 	98,000 	
39	31-1	164.41 																	
#39	32	6.94 	付保留地	中部瓦斯株式会社	905 	6,281 	81.00 	74.06 	○	移転あり	従前地まで	6.94 	76.00 	70.00%			477,000 	68,000 	牟呂町字北汐田1-6
39	35	14.55 	付保留地	羽田野 功	905 	13,168 	124.00 	110.30 	×	移転あり	従前地まで	14.55 	76.00 	70.00%			1,000,000 	68,000 	牟呂町字北汐田4-6
39	37	14.43 	付保留地	加藤 大蔵	905 	13,059 	124.00 	110.30 	×	移転あり	従前地まで	14.43 	76.00 	70.00%			992,000 	68,000 	牟呂町字北汐田4-7
39	39	23.99 	付保留地	鈴木 道子 外3名	905 	21,711 	247.93 	225.80 	×	移転あり	従前地まで	23.99 	87.00 	80.00%			1,888,000 	78,000 	牟呂町字北汐田4-3
39	41-1	55.01 										55.01 							
39	41-2	22.70 	付保留地	鈴木 哲則	905 	20,544 	178.00 	159.93 	×	移転なし	従前地まで	22.70 	54.00 	50.00%			1,109,000 	48,000 	牟呂町字北汐田3-3
39	44	31.71 	付保留地	小林 元子	905 	28,698 	181.00 	149.71 	×	更地	従前地まで	31.71 	98.00 	90.00%			2,812,000 	88,000 	牟呂町字北汐田3-1
39	45	33.74 	付保留地	小林 千代乃	905 	30,535 	170.00 	140.61 	×	更地	従前地まで	33.74 	98.00 	90.00%			2,992,000 	88,000 	牟呂町字北汐田3-4
39	47	27.55 	付保留地	鈴木 竜一	905 	24,933 	198.54 	173.96 	×	移転あり	従前地まで	27.55 	76.00 	70.00%			1,894,000 	68,000 	牟呂町字北汐田3-5
39	49	135.43 	付保留地	池上 克己	905 	122,564 	111.70 	97.87 	×	移転あり	従前地以上	13.83 	76.00 	70.00%	121.60 	109.00 	12,946,000 	95,000 	牟呂町字北汐田1-7
39	52	28.65 	付保留地	彦坂 亘洋	905 	25,928 	169.61 	148.60 	×	移転あり	従前地まで	28.65 	76.00 	70.00%			1,970,000 	68,000 	牟呂町字北汐田1-1
#39	54	50.70 			808 	40,966 									50.70 	109.00 	4,465,000 	88,000 	
39	55	19.07 	付保留地	太田正一外1名															
#39	57	15.89 		公共用地に変更予定	652 	10,360 									15.89 	109.00 	1,129,000 	71,000 	
#40	3	90.12 			876 	78,945 									90.12 	109.00 	8,605,000 	95,000 	
40	3-1	178.90 																	
40	3-2	178.90 																	
40	3-3	178.91 																	
40	3-4	178.90 																	
#40	4	625.51 			876 	547,947 									625.51 	109.00 	59,726,000 	95,000 	
40	8	207.04 			879 	181,988 									207.04 	109.00 	19,836,000 	95,000 	
40	14	213.04 			1,018 	216,875 									213.04 	109.00 	23,639,000 	110,000 	
40	16	288.87 																	
40	18	211.11 																	
41	2	6,690.99 	付保留地	豊橋市	979 	6,550,479 	20,419.00 	13,928.23 	×						6,690.99 	109.00 	541,970,190 	81,000 	H23.9.2 随意契約
42	17	41.00 		足立 英雄 外1名？	981 	40,221 									41.00 	109.00 	4,384,000 	106,000 	
43	1-2	151.01 	付保留地	井野 隆生	958 	144,668 	130.00 	96.93 	×	移転あり	従前地以上	33.07 	87.00 	80.00%	117.94 	109.00 	15,071,000 	99,810 	H21.1.28 随意契約
#43	1-3	64.92 	付保留地	井上 惠生	887 	57,584 	141.18 	116.90 	×	移転あり	従前地以上	24.28 	76.00 	70.00%	40.64 	109.00 	5,565,000 	85,730 	牟呂町字南汐田10-10
#43	1-5	239.92 			887 	212,809 									239.92 	109.00 	23,196,000 	96,000 	
43	1-4	260.08 																	
43	4	547.80 	付保留地	船井 邦浩	1,002 	548,896 	2,847.90 	2,204.57 	○	移転なし	従前地まで	547.80 	65.00 	60.00%			35,678,000 	65,000 	牟呂町字北汐田28,29,30,南汐田9
43	5	246.30 			1,037 	255,413 									246.30 	109.00 	27,840,000 	113,000 	
43	6	68.98 	付保留地	味岡 徳恭	978 	67,462 	274.70 	205.72 	○	移転なし	従前地まで	68.98 	65.00 	60.00%			4,385,000 	63,000 	牟呂町字北汐田31-2,31-6
#43	8	62.17 	付保留地	白井 辰男 外2名	976 	60,678 	201.32 	142.33 	×	移転なし	従前地以上	58.99 	65.00 	60.00%	3.18 	109.00 	4,080,000 	65,000 	牟呂町字北汐田31-3,31-5
43	9	55.62 	付保留地	田中和子外1名													5,923,000 		
43	11	38.64 	付保留地	味岡 志信	977 	37,751 	132.00 	93.36 	○	移転なし	従前地まで	38.64 	98.00 	90.00%			3,699,000 	95,000 	牟呂町字北汐田31-4
43	12	59.66 	付保留地	中部電力株式会社	779 	46,475 	168.00 	112.04 	×	移転なし	従前地以上	55.96 	54.00 	50.00%	3.70 	109.00 	2,668,000 	44,730 	H22.6.8 随意契約
#44	1	431.43 			1,077 	464,650 									431.43 	109.00 	50,646,000 	117,000 	
44	1-3	187.68 																	
44	4	242.26 																	
#44	4-1	47.61 	付保留地	小柳津 喜夫 外1名	1,050 	49,991 	236.31 	194.66 	×	移転あり	従前地以上	41.65 	87.00 	80.00%	5.96 	109.00 	4,486,000 	94,000 	
45	3	190.32 	付保留地	田中 和子	1,048 	199,455 	773.00 	496.32 	○	更地	従前地まで	190.32 	109.00 	100.00%			21,740,000 	114,000 	牟呂町字百間73
45	4-1	495.48 																	
45	4-2	132.00 	付保留地																
46	4-2	20.51 	付保留地	神藤 良之													1,782,000 	86,890 	H29.5.12 随意契約
46	7	48.36 	付保留地	神藤 良之	963 	46,571 	187.98 	139.62 	○	移転あり	従前地まで	48.36 	76.00 	70.00%			3,539,000 	73,190 	H25.10.10 随意契約
46	9	43.87 	付保留地	神藤 良之	933 	40,931 	188.00 	144.13 	○	更地	従前地まで	43.87 	98.00 	90.00%			4,011,000 	91,430 	H25.10.10 随意契約
46	10	46.31 	付保留地	神藤 良之	963 	44,597 	180.00 	133.69 	○	更地	従前地まで	46.31 	98.00 	90.00%			4,370,000 	94,370 	H25.10.10 随意契約
#46	12	60.00 	付保留地	大石 美穂子	893 	53,580 	450.00 	281.77 	○	更地	従前地まで	60.00 	109.00 	100.00%			5,840,000 	97,000 	牟呂町字南汐田50-1,51-1,51-4
46	12	176.45 															17,168,000 	97,000 	H30
47	1-1	314.72 																	
47	1-2	309.81 																	
#47	2	427.45 			884 	377,866 									427.45 	109.00 	41,187,000 	96,000 	
47	3	231.72 			884 	204,840 									231.72 	109.00 	22,327,000 	96,000 	
47	4	178.22 			884 	157,546 									178.22 	109.00 	17,172,000 	96,000 	
47	7	12.68 	付保留地	藤城 茂 外1名	904 	11,463 	296.09 	230.14 	○	移転あり	従前地まで	12.68 	87.00 	80.00%			997,000 	78,630 	H21.6.16 随意契約
47	11	81.63 	付保留地	彦坂 泰 外1名	893 	72,896 	335.04 	283.11 	×	移転なし	従前地以上	51.93 	65.00 	60.00%	29.70 	109.00 	5,905,000 	72,000 	牟呂町字南汐田10-1,10-3,10-9
47	12-2	76.02 	付保留地	山田 吉英	967 	73,511 	116.82 	88.48 	×	移転あり	従前地以上	28.34 	76.00 	70.00%	47.68 	109.00 	7,108,000 	93,000 	牟呂町字南汐田50-6,51-3
47	13	141.18 			937 	132,286 									141.18 	109.00 	14,419,000 	102,000 	
47	16	224.79 			937 	210,628 									224.79 	109.00 	22,958,000 	102,000 	
47	17-2	46.83 															3,876,000 	82,000 	H27
47	18	72.40 	付保留地	青野 秀之	937 	67,839 	322.09 	249.69 	○	移転あり	従前地まで	72.40 	87.00 	80.00%			5,901,000 	81,510 	牟呂町字南汐田10-11,10-12
47	21	82.98 	付保留地	加藤 留吉	937 	77,752 	231.40 	181.37 	×	移転あり	従前地以上	50.03 	87.00 	80.00%	32.95 	109.00 	7,443,000 	89,700 	H21.8.6 随意契約
47	23	32.95 	付保留地	伊藤 十七二	967 	31,863 	297.52 	231.62 	○	移転あり	従前地まで	32.95 	87.00 	80.00%			2,772,000 	84,130 	H21.12.15 随意契約
49	1	349.17 	付保留地	岡田 肇	1,067 	372,564 	2,686.11 	1,796.17 	○	移転なし	従前地まで	349.17 	87.00 	80.00%			32,413,000 	92,830 	H21.6.4 随意契約
#49	7	240.42 			1,035 	248,835 									240.42 	109.00 	27,123,000 	112,000 	
49	7-2	25.77 	付保留地																
49	16	27.89 	付保留地	大川 かづ子	922 	25,715 	170.00 	142.11 	○	更地	従前地まで	27.89 	98.00 	90.00%			2,520,000 	90,000 	牟呂町字北汐田3-6
49	19	205.79 	付保留地	藤田 敏広	922 	189,738 	186.78 	157.77 	×	移転あり	従前地以上	29.01 	87.00 	80.00%	176.78 	109.00 	20,093,000 	97,640 	H24.9.26 随意契約
50	3	84.45 	付保留地	野尻 悦子	909 	76,765 	247.00 	162.55 	○	更地	従前地まで	84.45 	109.00 	100.00%			8,367,000 	99,000 	牟呂町字南汐田42-4
50	4	244.49 			909 	222,241 									244.49 	109.00 	24,223,000 	99,000 	R01
50	6	51.26 	付保留地	遠藤 隆	909 	46,595 	165.00 	113.74 	○	更地	従前地まで	51.26 	98.00 	90.00%			4,566,000 	89,000 	牟呂町字南汐田23-3
50	16	90.13 	付保留地	氏原 篤子 外1名	1,008 	90,851 	247.00 	157.81 	×	更地	従前地以上	89.19 	109.00 	100.00%	0.94 	109.00 	9,902,000 	109,000 	牟呂町字南汐田40-4,41-2
50	17	165.29 			1,008 	166,612 									165.29 	109.00 	18,160,000 	109,000 	
50	19	54.87 	付保留地	田中 慎一	1,039 	57,010 	198.35 	143.48 	○	移転あり	従前地まで	54.87 	76.00 	70.00%			4,332,000 	78,960 	H23.8.23 随意契約
51	1	424.58 																	
51	2	147.67 			902 	133,198 									147.67 	109.00 	14,518,000 	98,000 	
#51	14	29.45 	付保留地	関根 克俊	1,034 	30,451 	297.28 	201.96 	○	移転なし	従前地まで	29.45 	65.00 	60.00%			1,979,000 	67,000 	牟呂町字南汐田37-1
52	4-1	205.55 			898 	184,584 									205.55 	109.00 	20,119,000 	97,000 	
52	4-3	205.56 																	
52	6	84.76 	付保留地	杉浦 博	928 	78,657 	247.91 	163.15 	○	移転あり	従前地まで	84.76 	87.00 	80.00%			6,843,000 	80,740 	H26.8.4 随意契約
52	10	76.87 	付保留地	神藤 良之	936 	71,950 	186.19 	142.38 	×	移転あり	従前地以上	43.81 	87.00 	80.00%	33.06 	109.00 	6,940,000 	90,290 	
#52	15-2	191.76 		換地	1,002 	192,144 									191.76 	109.00 	20,943,000 	109,000 	
53	3	74.87 	付保留地	五味 美明	935 	70,003 	330.58 	255.74 	×	移転あり	従前地以上	74.84 	87.00 	80.00%	0.03 	109.00 	6,090,000 	81,350 	H22.12.15 随意契約
53	7	449.14 	付保留地	小野 広司	909 	408,268 	1,061.15 	732.52 	×	移転あり	従前地以上	328.63 	87.00 	80.00%	120.51 	109.00 	37,929,000 	84,450 	H21.4.23 随意契約
53	13-2	91.70 	付保留地	山本 静子	899 	82,438 	435.89 	292.51 	○	移転あり	従前地まで	91.70 	87.00 	80.00%			7,172,000 	78,220 	H26.8.20 随意契約
53	19	319.63 			899 	287,347 									319.63 	109.00 	31,320,000 	97,000 	
#53	23	237.05 	付保留地	加藤 則子	941 	223,064 	378.59 	227.82 	×	移転あり	従前地以上	150.77 	87.00 	80.00%	86.28 	109.00 	21,192,000 	89,000 	牟呂町字松東45-3,45-7,45-8
53	26	244.75 																	
54	4	199.21 	付保留地	竹尾 滋仁 外1名	938 	186,859 	1,438.00 	1,079.08 	○	移転あり	従前地まで	199.21 	87.00 	80.00%			16,256,000 	81,000 	牟呂町字南汐田7
54	8	853.48 																	
54	9	77.92 	付保留地	ルクラ株式会社													6,860,000 	88,000 	牟呂町字古田16-2
54	12	75.45 	付保留地	竹内 祐子 外1名	925 	69,791 	446.29 	370.84 	○	移転あり	従前地まで	75.45 	87.00 	80.00%			6,071,000 	80,470 	H21.10.28 随意契約
54	15	267.43 		森田 兼光換地変更予定	884 	236,408 									267.43 	109.00 	25,768,000 	96,000 	
54	18	193.92 															19,527,000 	100,000 	R01
55	2	500.22 	付保留地	株式会社オオバ	868 	434,191 	3,199.36 	2,485.03 	○	移転なし	従前地まで	500.22 	65.00 	60.00%			28,222,000 	56,000 	牟呂町字古田28,29,30-1,30-2
#56	4	508.32 			873 	443,763 									508.32 	109.00 	48,370,000 	95,000 	
56	4-1	137.38 																	
56	4-2	137.38 																	
56	4-3	137.40 																	
56	4-4	137.39 																	
56	4-5	137.39 																	
#56	5	178.68 			873 	155,988 									178.68 	109.00 	17,002,000 	95,000 	
56	7	81.35 	付保留地	増田 繁夫	873 	71,019 	354.00 	249.25 	○	更地	従前地まで	81.35 	109.00 	100.00%			7,741,000 	95,000 	牟呂町字松東19-7
56	20	100.14 	付保留地	鈴木智野	892 	89,325 									100.14 	109.00 	9,736,000 	97,000 	
57	7-1	23.49 	付保留地	白井 としゑ	866 	20,342 	212.00 	155.26 	○	更地	従前地まで	23.49 	98.00 	90.00%			1,993,000 	84,850 	H23.7.13 随意契約
57	11	206.38 															19,606,000 	94,000 	R02
57	17-2	73.11 	付保留地	藤井 士朗	877 	64,117 	156.07 	133.32 	×	移転あり	従前地以上	22.75 	87.00 	80.00%	50.36 	109.00 	6,549,000 	89,580 	H26.11.27 随意契約
58	2	90.78 	付保留地	加藤 久惠 外1名	852 	77,345 	519.54 	387.22 	○	移転なし	従前地まで	90.78 	65.00 	60.00%			5,027,000 	55,000 	牟呂町字古田31-1,31-2の持分
58	3	81.51 	付保留地	加藤 久惠 外1名	852 	69,447 	519.54 	396.49 	○	移転なし	従前地まで	81.51 	65.00 	60.00%			4,514,000 	55,000 	牟呂町字古田31-1,31-2の持分
58	5	216.07 			903 	195,111 									216.07 	109.00 	21,267,000 	98,000 	
58	6	141.56 	付保留地	菅沼 きよ子	900 	127,404 	743.00 	602.10 	×	移転なし	従前地まで	141.56 	65.00 	60.00%			8,281,000 	58,000 	牟呂町字古田32
#58	9	15.58 		道路附帯地															
59	2	138.57 	付保留地	味岡 秋夫	869 	120,417 	329.00 	256.38 	×	更地	従前地以上	72.62 	109.00 	100.00%	65.95 	109.00 	13,125,000 	94,720 	H26.11.7 随意契約
59	4	85.96 	付保留地	木下惠子	851 	73,152 	241.00 	196.85 	×	移転なし	従前地以上	44.15 	65.00 	60.00%	41.81 	109.00 	6,320,000 	73,000 	H27
59	6	38.50 	付保留地	大野 功	851 	32,764 	185.00 	146.50 	○	更地	従前地まで	38.50 	98.00 	90.00%			3,210,000 	83,000 	牟呂町字松東10-1
#59	7	265.45 			851 	225,898 									265.45 	109.00 	24,622,000 	92,000 	
59	7-2	51.70 	付保留地														3,854,000 	74,000 	H28
#59	9	14.13 		道路附帯地															
60	3	570.09 			851 	485,147 									570.09 	109.00 	52,881,000 	92,000 	
61	6	216.02 			837 	180,809 									216.02 	109.00 	19,708,000 	91,000 	
61	9	125.82 	付保留地	伊藤 百合男	888 	111,728 	307.00 	181.18 	○	更地	従前地まで	125.82 	109.00 	100.00%			12,178,000 	96,790 	牟呂町字松東59
62	4	186.21 			861 	160,327 									186.21 	109.00 	17,475,000 	93,000 	
62	6-2	151.59 																	
62	6-3	150.15 															14,129,000 	94,000 	R01
62	6-4	142.03 																	
62	6-5	145.21 																	
62	6-6	148.41 																	
#62	10	446.40 			863 	385,243 									446.40 	109.00 	41,991,000 	94,000 	
62	10-1	148.79 																	
62	10-2	148.81 																	
62	10-3	148.79 																	
#64	1	389.89 			947 	369,226 									389.89 	109.00 	40,245,000 	103,000 	
64	1-2	117.14 	付保留地	酒井 義次													10,303,000 	87,000 	H27
64	2	196.69 															19,859,000 	100,000 	H30
#64	6	108.38 	付保留地	酒井 義次	926 	100,360 	300.82 	222.20 	×	移転なし	従前地以上	78.62 	65.00 	60.00%	29.76 	109.00 	7,735,000 	71,000 	牟呂町字古幡焼2,3
64	7	175.82 																	
#64	8	221.96 			926 	205,535 									221.96 	109.00 	22,403,000 	100,000 	
#64	10	58.54 	付保留地	鈴木 あきゑ	926 	54,208 	224.00 	165.46 	○	更地	従前地まで	58.54 	109.00 	100.00%			5,908,000 	100,000 	牟呂町字松東49
#64	11	41.45 	付保留地	伊藤 恒久	926 	38,383 	244.00 	161.09 	○	更地	従前地まで	41.45 	109.00 	100.00%			4,183,000 	100,000 	牟呂町字松東48
64	15	186.63 			926 	172,819 									186.63 	109.00 	18,837,000 	100,000 	
64	20	36.44 	付保留地	加藤 吉明 外1名													3,705,000 	101,000 	H30
#64	24	186.46 			895 	166,882 									186.46 	109.00 	18,190,000 	97,000 	
#64	27	214.77 			895 	192,219 									214.77 	109.00 	20,951,000 	97,000 	
64	27-1	160.63 																	
64	27-2	160.62 																	
64	29	102.00 	付保留地	岡田 欣子	895 	91,290 	250.00 	133.40 	○	更地	従前地まで	102.00 	109.00 	100.00%			9,950,000 	97,000 	牟呂町字古幡焼4-1,4-2
64	31	63.29 	付保留地	岡田 かと													5,622,000 	88,000 	R01
64	34	84.32 	付保留地	中村 忠美	895 	75,466 	314.04 	229.73 	×	移転あり	従前地以上	84.31 	87.00 	80.00%	0.01 	109.00 	6,565,000 	77,860 	H26.8.20 随意契約
64	35	150.72 	付保留地	梅村 アヤノ	895 	134,894 	733.00 	515.09 	○	更地	従前地まで	150.72 	109.00 	100.00%			14,703,000 	97,000 	牟呂町字古幡焼7
65	1	538.31 			884 	475,866 									538.31 	109.00 	51,869,000 	96,000 	
65	11	218.79 															20,675,000 	94,000 	R01
65	14	220.39 	付保留地	有限会社味岡製作所	1,008 	222,153 	492.00 	396.73 	×	移転なし	従前地以上	95.27 	65.00 	60.00%	125.12 	109.00 	19,989,000 	90,000 	牟呂町字南汐田61
65	15	1,075.91 			1,017 	1,094,200 									1,075.91 	109.00 	119,267,000 	110,000 	
#65	16	104.66 	付保留地	鈴木 進 外1名	968 	101,311 	264.00 	192.87 	×	更地	従前地以上	71.13 	109.00 	100.00%	33.53 	109.00 	11,042,000 	105,000 	牟呂町字南汐田62-3
#65	20	31.63 	付保留地	渡会 賢二	968 	30,618 	132.24 	100.61 	○	移転なし	従前地まで	31.63 	54.00 	50.00%			1,653,000 	52,000 	牟呂町字松島東42-2
#65	22	75.52 	付保留地	大塚 悟 外1名	968 	73,103 	165.30 	122.83 	×	移転なし	従前地以上	42.47 	54.00 	50.00%	33.05 	109.00 	5,707,000 	75,000 	牟呂町字松島東42-1
#65	23	72.25 	付保留地	河合 きみ子	968 	69,938 	280.93 	208.75 	×	移転あり	従前地以上	72.18 	87.00 	80.00%	0.07 	109.00 	6,086,000 	84,000 	牟呂町字松島東42-3,43,44-2
65	27	158.08 			968 	153,021 									158.08 	109.00 	16,679,000 	105,000 	
65	29	29.23 	付保留地	河原崎 清	968 	28,295 	389.90 	286.35 	○	移転あり	従前地まで	29.23 	87.00 	80.00%			2,461,000 	84,200 	H23.10.14 随意契約
66	1	528.94 			893 	472,343 									528.94 	109.00 	51,485,000 	97,000 	
66	15	55.59 	付保留地	大矢 義仁	1,016 	56,479 	245.00 	159.29 	○	更地	従前地まで	55.59 	109.00 	100.00%			6,156,000 	110,740 	H25.8.27 随意契約
66	21	47.39 	付保留地	鈴木 康行	893 	42,319 	247.00 	150.96 	○	移転あり	従前地まで	47.39 	76.00 	70.00%			3,216,000 	67,870 	H23.8.4 随意契約
66	25	97.07 	付保留地	岡田 昭夫	893 	86,684 	356.26 	259.19 	○	移転あり	従前地まで	97.07 	87.00 	80.00%			7,541,000 	77,690 	H26.4.7 随意契約
66	27	32.92 	付保留地	山本 高市	893 	29,398 	307.43 	223.66 	○	移転あり	従前地まで	32.92 	87.00 	80.00%			2,557,000 	77,000 	牟呂町字松島東54,55
66	29	86.47 	付保留地	福井 四郎	893 	77,218 	213.83 	144.94 	×	移転あり	従前地以上	68.89 	87.00 	80.00%	17.58 	109.00 	7,063,000 	81,690 	H25.7.10 随意契約
67	1-2	96.48 	付保留地	早川 裕司	912 	87,990 	93.61 	78.13 	×	移転あり	従前地以上	15.48 	76.00 	70.00%	81.00 	109.00 	9,125,000 	94,580 	H21.4.28 随意契約
67	1-4	68.48 	付保留地	佐藤 房子	883 	60,468 	297.52 	191.72 	○	移転あり	従前地まで	68.48 	87.00 	80.00%			5,260,000 	76,820 	H24.7.24 随意契約
67	2-4	110.53 	付保留地	株式会社 パナホーム静岡 外１名	883 	97,598 	2,360.00 	2,176.17 	○	更地	従前地まで	110.53 	109.00 	100.00%	110.53 	109.00 	10,638,000 	96,250 	H20.3.25 随意契約
67	6	619.15 			883 	546,709 									619.15 	109.00 	59,591,000 	96,000 	
67	9	231.41 			1,025 	237,195 									231.41 	109.00 	25,854,000 	111,000 	
67	13	165.29 			995 	164,464 									165.29 	109.00 	17,926,000 	108,000 	
67	14	63.04 	付保留地	山本 和司	995 	62,725 	130.00 	102.25 	×	移転あり	従前地以上	27.75 	76.00 	70.00%	35.29 	109.00 	5,925,000 	93,990 	牟呂町字南汐田50-2,50-10
67	16	73.42 	付保留地	植村 啓道	1,025 	75,256 	130.00 	91.87 	×	移転あり	従前地以上	38.13 	76.00 	70.00%	35.29 	109.00 	6,913,000 	94,160 	H23.9.26 随意契約
67	19	198.35 			902 	178,912 									198.35	109	19,501,000 	98,000 	
67	22	27.74 	付保留地	佐藤 介敏	902 	25,021 	290.90 	203.67 	○	移転あり	従前地まで	27.74 	87.00 	80.00%			2,176,000 	78,450 	H23.8.8 随意契約
68	3	420.88 			867 	364,903 									420.88 	109.00 	39,774,000 	94,000 	
68	6	198.35 			909 	180,300 									198.35 	109.00 	19,652,000 	99,000 	
68	8	165.29 			909 	150,249 									165.29 	109.00 	16,377,000 	99,000 	牟呂町字松島東15-19
69	3	82.44 	付保留地	中部電力株式会社	704 	58,038 	294.00 	191.27 	○	移転なし	従前地まで	82.44 	65.00 	60.00%			3,772,000 	45,760 	H21.6.19 随意契約
69	5	96.20 																0 	
69	7-1	249.23 			1,008 	251,224 									249.23 	109.00 	27,383,000 	109,000 	
#69	7-3	13.13 		道路附帯地	1,008 	13,235 									13.13 	109.00 	1,442,000 	109,000 	
69	12	195.39 			893 	174,483 									195.39 	109.00 	19,018,000 	97,000 	
69	13	217.64 			893 	194,353 									217.64 	109.00 	21,184,000 	97,000 	
70	7	3,611.49 	付保留地	㈱バロー	1,053 	3,802,899 	22,570.55 	17,780.43 	○						3,611.49 	109.00 	365,980,800 	101,340 	H25.10.25 随意契約
#70	9	45.39 		公共用地	738 	33,498 									45.39 	109.00 	3,651,000 	80,000 	
71	4	21.23 	付保留地	野寄 圭三	864 	18,343 	281.24 	258.77 	○	移転あり	従前地まで	21.23 	87.00 	80.00%			1,595,000 	75,130 	H22.8.24 随意契約
#71	5	361.71 			864 	312,517 									361.71 	109.00 	34,064,000 	94,000 	
71	5-1	180.85 													180.85 				
71	5-2	180.85 		朝岡 好一													17,144,000 	94,800 	H28.12.12 随意契約
71	6	72.41 	付保留地	白井 為夫	888 	64,300 	198.87 	125.94 	○	移転あり	従前地まで	72.41 	76.00 	70.00%			4,886,000 	67,480 	H22.6.14 随意契約
71	13	138.49 	付保留地	金田 裕史・金田 泰子	859 	118,963 	165.28 	125.98 	×	移転あり	従前地以上	39.30 	87.00 	80.00%	99.19 	109.00 	12,224,000 	88,270 	H25.10.31 随意契約
71	14	122.16 	付保留地	岡田 佳久	859 	104,935 	165.28 	125.97 	×	移転あり	従前地以上	39.31 	87.00 	80.00%	82.85 	109.00 	10,695,000 	87,550 	H23.8.1 随意契約
72	5	14.14 	付保留地	杉浦 清	907 	12,825 	274.00 	184.21 	○	移転あり	従前地まで	14.14 	76.00 	70.00%			974,000 	68,890 	H23.8.16 随意契約
72	6	43.32 	付保留地	白井 享	892 	38,641 	172.00 	122.55 	○	移転あり	従前地まで	43.32 	76.00 	70.00%			2,920,000 	67,410 	H24.10.2 随意契約
73	1	427.30 	付保留地	神野建設株式会社	1,001 	427,727 	142.00 	103.94 	×	移転あり	従前地以上	38.06 	76.00 	70.00%	389.24 	109.00 	45,365,000 	106,000 	牟呂町字松島東85
73	2	389.63 	付保留地	武蔵株式会社													27,147,000 	69,680 	H27
73	5	86.78 	付保留地	中部電力株式会社	709 	61,527 	208.00 	156.26 	×	移転なし	従前地以上	51.74 	65.00 	60.00%	35.04 	109.00 	5,092,000 	58,000 	牟呂町字松島東10-2
#73	7	110.43 		道路拡幅予定地	659 	72,773 									110.43 	109.00 	7,932,000 	71,000 	
73	8	64.76 	付保留地	武蔵株式会社													2,694,000 	41,000 	H27
73	9	154.05 																	
74	1	156.21 			1,072 	167,457 									156.21 	109.00 	18,252,000 	116,000 	
74	3	303.44 			1,057 	320,736 									303.44 	109.00 	34,960,000 	115,000 	
74	4	28.07 	付保留地	白井 仲次 外2名	1,057 	29,670 	332.67 	236.40 	○	更地	従前地まで	28.07 	109.00 	100.00%			3,234,000 	115,000 	牟呂町字北汐田14-1持分
75	3	903.66 	付保留地	豊橋市													79,522,080 	88,000 	H27
75	4	520.16 	付保留地	神野新田土地改良区	972 	505,596 	3,256.35 	2,375.06 	○	移転あり	従前地まで	520.16 	87.00 	80.00%			43,986,000 	84,000 	字松島13-2,字会所前66-1
76	3	493.66 			860 	424,548 									493.66 	109.00 	46,275,000 	93,000 	
77	2	146.61 		杉浦 豊作？	970 	142,212 									146.61 	109.00 	15,501,000 	105,000 	
77	3	502.27 			970 	487,202 									502.27 	109.00 	53,105,000 	105,000 	
78	11	343.64 			978 	336,080 									343.64 	109.00 	36,632,000 	106,000 	
79	2-1	222.26 			871 	193,588 									222.26 	109.00 	21,101,000 	94,000 	
79	2-2	17.30 	付保留地	鈴木 貴雄	841 	14,549 	195.00 	148.77 	○	更地	従前地まで	17.30 	98.00 	90.00%			1,425,000 	82,370 	H23.7.11 随意契約
79	3	80.37 	付保留地	谷山 はつゑ	822 	66,064 	128.00 	117.98 	×	移転あり	従前地以上	10.02 	76.00 	70.00%	70.35 	109.00 	6,929,000 	86,000 	牟呂町字松島東51-4
79	7	70.98 	付保留地	岡田 文男	842 	59,765 	276.03 	205.05 	○	移転あり	従前地まで	70.98 	87.00 	80.00%			5,199,000 	73,250 	H21.10.1 随意契約
#79	8	56.37 		公共用地															
80	6	328.75 			830 	272,863 									328.75 	109.00 	29,742,000 	90,000 	
82	4	607.50 			781 	474,458 									607.50 	109.00 	51,715,000 	85,000 	
82	9	373.72 		柴田 絹江 外3名？	895 	334,479 									373.72 	109.00 	36,458,000 	97,000 	
82	14	388.02 															0 	0 	
83	1	280.60 																	
#83	3	305.27 			954 	291,228 									305.27 	109.00 	31,743,000 	103,000 	
83	6	305.27 																	
83	7	229.44 	付保留地	日比 好宥	954 	218,886 	547.00 	317.56 	○	移転あり	従前地まで	229.44 	87.00 	80.00%			19,043,000 	82,000 	牟呂町字奥山新田1-1,1-2
83	9	40.00 	付保留地	鈴木 秀夫	988 	39,520 	297.00 	158.91 	○	更地	従前地まで	40.00 	109.00 	100.00%			4,307,000 	107,000 	牟呂町字奥山新田1-4
83	11	187.20 	付保留地	熊谷 久	857 	160,430 	113.00 	70.05 	×	移転あり	従前地以上	42.95 	76.00 	70.00%	144.25 	109.00 	16,272,000 	86,000 	牟呂町字奥山新田1-3
#86	6	77.38 		道路附帯地															
87	5-2	189.75 			952 	180,642 									189.75 	109.00 	19,689,000 	103,000 	
87	14	77.59 	付保留地	井戸 彰子	832 	64,555 	170.24 	120.76 	×	移転あり	従前地以上	49.48 	76.00 	70.00%	28.11 	109.00 	5,677,000 	73,170 	牟呂町字松島3-9
88	4	138.25 			866 	119,725 									138.25 	109.00 	13,050,000 	94,000 	
88	7	38.93 	付保留地	味岡 秋夫	876 	34,103 	190.85 	159.42 	×	移転あり	従前地以上	31.43 	76.00 	70.00%	7.50 	109.00 	2,808,000 	72,130 	H24.4.23 随意契約
88	17	31.09 	付保留地	黒川 敏子	823 	25,587 	152.06 	120.97 	○	移転あり	従前地まで	31.09 	76.00 	70.00%			1,944,000 	62,530 	H23.7.13 随意契約
88	19-1	26.01 	付保留地	浦川 勇一	851 	22,135 	98.58 	86.73 	×	移転あり	従前地以上	11.85 	76.00 	70.00%	14.16 	109.00 	2,079,000 	79,940 	H23.9.8 随意契約
88	19-2	11.76 			599 	7,044 									11.76 	109.00 	767,000 	65,000 	
#88	20	72.09 		公共用地															
89	2	57.09 	付保留地	谷山 峰子	1,005 	57,375 	195.04 	137.95 	○	移転あり	従前地まで	57.09 	76.00 	70.00%			4,360,000 	76,380 	H22.6.28 随意契約
89	4	238.57 			999 	238,331 									238.57 	109.00 	25,978,000 	108,000 	
89	6	184.99 			963 	178,145 									184.99 	109.00 	19,417,000 	104,000 	
89	11	48.22 	付保留地	河合 一利	821 	39,589 	132.49 	111.52 	×	移転あり	従前地以上	20.97 	76.00 	70.00%	27.25 	109.00 	3,746,000 	77,690 	H23.10.5 随意契約
90	3	389.25 			831 	323,467 									389.25 	109.00 	35,257,000 	90,000 	
#90	4	107.58 		堤防用地へ変更予定															
#90	5	25.46 		道路附帯地															
#91	2	100.99 		一号緑地へ変更予定	847 	85,539 									100.99 	109.00 	9,323,000 	92,000 	
